DJI_0477.jpg
DJI_0406.jpg
DJI_0515.jpg
DJI_0546.jpg
DJI_0481.jpg
DJI_0588.jpg
DJI_0473.jpg
DJI_0528.jpg
DJI_0479.jpg
DJI_0575.jpg
DJI_0604.jpg
DJI_0605.jpg
DJI_0449.jpg
DJI_0610.jpg
DJI_0656.jpg
DJI_0675.jpg
DJI_0478.jpg
DJI_0425.jpg
DJI_0638.jpg
DJI_0464.jpg
DJI_0615.jpg
DJI_0521.jpg
DJI_0446.jpg
DJI_0471.jpg
DJI_0641.jpg
DJI_0643.jpg
DJI_0576.jpg
DJI_0573.jpg
DJI_0526.jpg
DJI_0443.jpg
DJI_0458.jpg
DJI_0463.jpg
DJI_0637.jpg
DJI_0560.jpg
DJI_0647.jpg
DJI_0445.jpg
DJI_0581.jpg
DJI_0437.jpg
DJI_0530.jpg
DJI_0578.jpg
DJI_0467.jpg
DJI_0618.jpg
DJI_0432.jpg
DJI_0537.jpg
DJI_0659.jpg
DJI_0626.jpg
DJI_0607.jpg
DJI_0436.jpg
DJI_0486.jpg
DJI_0538.jpg
DJI_0404.jpg
DJI_0423.jpg
DJI_0518.jpg
DJI_0650.jpg
DJI_0630.jpg
DJI_0568.jpg
DJI_0484.jpg
DJI_0617.jpg
DJI_0428.jpg
DJI_0665.jpg
DJI_0614.jpg
DJI_0525.jpg
DJI_0634.jpg
DJI_0411.jpg
DJI_0461.jpg
DJI_0462.jpg
DJI_0548.jpg
DJI_0523.jpg
DJI_0586.jpg
DJI_0452.jpg
DJI_0566.jpg
DJI_0410.jpg
DJI_0558.jpg
DJI_0612.jpg
DJI_0417.jpg
DJI_0631.jpg
DJI_0555.jpg
DJI_0669.jpg
DJI_0413.jpg
DJI_0422.jpg
DJI_0415.jpg
DJI_0408.jpg
DJI_0670.jpg
DJI_0674.jpg
DJI_0620.jpg
DJI_0645.jpg
DJI_0472.jpg
DJI_0524.jpg
DJI_0585.jpg
DJI_0424.jpg
DJI_0657.jpg
DJI_0640.jpg
DJI_0475.jpg
DJI_0459.jpg
DJI_0664.jpg
DJI_0561.jpg
DJI_0418.jpg
DJI_0514.jpg
DJI_0600.jpg
DJI_0534.jpg
DJI_0519.jpg
DJI_0648.jpg
DJI_0549.jpg
DJI_0652.jpg
DJI_0426.jpg
DJI_0455.jpg
DJI_0553.jpg
DJI_0567.jpg
DJI_0456.jpg
DJI_0632.jpg
DJI_0469.jpg
DJI_0591.jpg
DJI_0427.jpg
DJI_0453.jpg
DJI_0465.jpg
DJI_0633.jpg
DJI_0655.jpg
DJI_0535.jpg
DJI_0580.jpg
DJI_0564.jpg
DJI_0559.jpg
DJI_0405.jpg
DJI_0516.jpg
DJI_0563.jpg
DJI_0541.jpg
DJI_0594.jpg
DJI_0593.jpg
DJI_0531.jpg
DJI_0430.jpg
DJI_0597.jpg
DJI_0457.jpg
DJI_0441.jpg
DJI_0420.jpg
DJI_0545.jpg
DJI_0598.jpg
DJI_0602.jpg
DJI_0434.jpg
DJI_0448.jpg
DJI_0571.jpg
DJI_0577.jpg
DJI_0547.jpg
DJI_0622.jpg
DJI_0644.jpg
DJI_0606.jpg
DJI_0663.jpg
DJI_0621.jpg
DJI_0513.jpg
DJI_0520.jpg
DJI_0439.jpg
DJI_0583.jpg
DJI_0579.jpg
DJI_0646.jpg
DJI_0595.jpg
DJI_0628.jpg
DJI_0627.jpg
DJI_0569.jpg
DJI_0570.jpg
DJI_0616.jpg
DJI_0438.jpg
DJI_0414.jpg
DJI_0554.jpg
DJI_0629.jpg
DJI_0619.jpg
DJI_0429.jpg
DJI_0592.jpg
DJI_0442.jpg
DJI_0416.jpg
DJI_0667.jpg
DJI_0450.jpg
DJI_0562.jpg
DJI_0431.jpg
DJI_0421.jpg
DJI_0454.jpg
DJI_0536.jpg
DJI_0440.jpg
DJI_0522.jpg
DJI_0635.jpg
DJI_0474.jpg
DJI_0470.jpg
DJI_0649.jpg
DJI_0485.jpg
DJI_0660.jpg
DJI_0540.jpg
DJI_0542.jpg
DJI_0533.jpg
DJI_0582.jpg
DJI_0590.jpg
DJI_0433.jpg
DJI_0529.jpg
DJI_0544.jpg
DJI_0466.jpg
DJI_0460.jpg
DJI_0673.jpg
DJI_0557.jpg
DJI_0661.jpg
DJI_0611.jpg
DJI_0642.jpg
DJI_0419.jpg
